circuit.vcd
$date
	Tue Nov 17 14:47:50 2020
$end
$version
	Icarus Verilog
$end
$timescale
	1ps
$end
$scope module circuit_tb $end
$var wire 96 ! y [95:0] $end
$var reg 1 " clk $end
$var reg 1 # en $end
$var reg 1 $ rst $end
$var integer 32 % i [31:0] $end
$scope module c0 $end
$var wire 1 " clk $end
$var wire 1 # en $end
$var wire 1 $ rst $end
$var wire 96 & y [95:0] $end
$var reg 7 ' cnt [6:0] $end
$var reg 96 ( y_atual [95:0] $end
$var reg 96 ) y_int [95:0] $end
$var reg 96 * y_next [95:0] $end
$upscope $end
$upscope $end
$enddefinitions $end
#0
$dumpvars
bx *
bx )
bx (
bx '
bx &
b0 %
0$
0#
1"
bx !
$end
#1000
b0 !
b0 &
b0 )
b0 '
b0 *
b0 (
1$
#5000
0"
#10000
1"
#11000
b1 %
1#
0$
#15000
0"
#20000
b1 '
b10010000101010011010100100100 *
1"
#21000
b10 %
#25000
0"
#30000
b111111111111111111111111111111111111111111111111111111111111111111000000100010010101111010000001 *
b10 '
1"
#31000
b11 %
#35000
0"
#40000
b11 '
b111111111111111111111111111111111111111111111111111111111111111110000100100001001101011000001001 *
1"
#41000
b100 %
#45000
0"
#50000
b111111111111111111111111111111111111111111111111111111111111111110110001111100000101011001100011 *
b100 '
1"
#51000
b101 %
#55000
0"
#60000
b101 '
b110101110010111101100001101 *
1"
#61000
b110 %
#65000
0"
#70000
b1000110110111111001100110001101 *
b110 '
1"
#71000
b111 %
#75000
0"
#80000
b111 '
b111111111111111111111111111111111111111111111111111111111111111110110010110000101000010001100101 *
1"
#81000
b1000 %
#85000
0"
#90000
b111111111111111111111111111111111111111111111111111111111111111110001001001101110101001000010010 *
b1000 '
1"
#91000
b1001 %
#95000
0"
#100000
b1001 '
b111100111110001100000001 *
1"
#101000
b1010 %
#105000
0"
#110000
b110110101111100110100001101 *
b1010 '
1"
#111000
b1011 %
#115000
0"
#120000
b1011 '
b111011001000111111000101110110 *
1"
#121000
b1100 %
#125000
0"
#130000
b11110100011011100110100111101 *
b1100 '
1"
#131000
b1101 %
#135000
0"
#140000
b1101 '
b1110110110101000101011111101101 *
1"
#141000
b1110 %
#145000
0"
#150000
b1000110001011011111011110001100 *
b1110 '
1"
#151000
b1111 %
#155000
0"
#160000
b1111 '
b1111100111111011110100111111001 *
1"
#161000
b10000 %
#165000
0"
#170000
b111111111111111111111111111111111111111111111111111111111111111111100011001101110010010011000110 *
b10000 '
1"
#171000
b10001 %
#175000
0"
#180000
b10001 '
b111111111111111111111111111111111111111111111111111111111111111111100010111101111000010011000101 *
1"
#181000
b10010 %
#185000
0"
#190000
b111111111111111111111111111111111111111111111111111111111111111111010101000100111101001010101010 *
b10010 '
1"
#191000
b10011 %
#195000
0"
#200000
b10011 '
b1110010101011111111011111100101 *
1"
#201000
b10100 %
#205000
0"
#210000
b111111111111111111111111111111111111111111111111111111111111111110111011110100100111001001110111 *
b10100 '
1"
#211000
b10101 %
#215000
0"
#220000
b10101 '
b111111111111111111111111111111111111111111111111111111111111111110001001001100101101011000010010 *
1"
#221000
b10110 %
#225000
0"
#230000
b1000111111011001101101110001111 *
b10110 '
1"
#231000
b10111 %
#235000
0"
#240000
b10111 '
b1111001001100000110100111110010 *
1"
#241000
b11000 %
#245000
0"
#250000
b111111111111111111111111111111111111111111111111111111111111111111100111011101101001011011001110 *
b11000 '
1"
#251000
b11001 %
#255000
0"
#260000
b11001 '
b111111111111111111111111111111111111111111111111111111111111111111110100000000000111101011101000 *
1"
#261000
b11010 %
#265000
0"
#270000
b111111111111111111111111111111111111111111111111111111111111111111100010110010100100111011000101 *
b11010 '
1"
#271000
b11011 %
#275000
0"
#280000
b11011 '
b101110010110000100100101011100 *
1"
#281000
b11100 %
#285000
0"
#290000
b111111111111111111111111111111111111111111111111111111111111111111011110100011100010100010111101 *
b11100 '
1"
#291000
b11101 %
#295000
0"
#300000
b11101 '
b111111111111111111111111111111111111111111111111111111111111111110010110101010110101100000101101 *
1"
#301000
b11110 %
#305000
0"
#310000
b111111111111111111111111111111111111111111111111111111111111111110110010101001110010011001100101 *
b11110 '
1"
#311000
b11111 %
#315000
0"
#320000
b11111 '
b111111111111111111111111111111111111111111111111111111111111111110110001111011110110001001100011 *
1"
#321000
b100000 %
#325000
0"
#330000
b101011100111000011100001010 *
b100000 '
1"
#331000
b100001 %
#335000
0"
#340000
b100001 '
b111111111111111111111111111111111111111111111111111111111111111111000000001110110010001010000000 *
1"
#341000
b100010 %
#345000
0"
#350000
b10000011001000010000100100000 *
b100010 '
1"
#351000
b100011 %
#355000
0"
#360000
b100011 '
b1010101011110000100010110101010 *
1"
#361000
b100100 %
#365000
0"
#370000
b111111111111111111111111111111111111111111111111111111111111111111001110110011001100110010011101 *
b100100 '
1"
#371000
b100101 %
#375000
0"
#380000
b100101 '
b111111111111111111111111111111111111111111111111111111111111111111001011001000000011111010010110 *
1"
#381000
b100110 %
#385000
0"
#390000
b111111111111111111111111111111111111111111111111111111111111111110001001100000111011100000010011 *
b100110 '
1"
#391000
b100111 %
#395000
0"
#400000
b100111 '
b111111111111111111111111111111111111111111111111111111111111111110000110101111000011100000001101 *
1"
#401000
b101000 %
#405000
0"
#410000
b111111111111111111111111111111111111111111111111111111111111111110101001101001111101011001010011 *
b101000 '
1"
#411000
b101001 %
#415000
0"
#420000
b101001 '
b110101100111111101110101101011 *
1"
#421000
b101010 %
#425000
0"
#430000
b111111111111111111111111111111111111111111111111111111111111111111101010101001100010101011010101 *
b101010 '
1"
#431000
b101011 %
#435000
0"
#440000
b101011 '
b111111111111111111111111111111111111111111111111111111111111111110000001000101110100101000000010 *
1"
#441000
b101100 %
#445000
0"
#450000
b111111111111111111111111111111111111111111111111111111111111111111010111010101100011111010101110 *
b101100 '
1"
#451000
b101101 %
#455000
0"
#460000
b101101 '
b1110111111111110100100011101 *
1"
#461000
b101110 %
#465000
0"
#470000
b111111111111111111111111111111111111111111111111111111111111111111100111110001010111001011001111 *
b101110 '
1"
#471000
b101111 %
#475000
0"
#480000
b101111 '
b10001100001000100100100100011 *
1"
#481000
b110000 %
#485000
0"
#490000
b101000010010110010100001010 *
b110000 '
1"
#491000
b110001 %
#495000
0"
#500000
b110001 '
b111111111111111111111111111111111111111111111111111111111111111111100101011100110000101011001010 *
1"
#501000
b110010 %
#505000
0"
#510000
b111111111111111111111111111111111111111111111111111111111111111110011110001100010100110000111100 *
b110010 '
1"
#511000
b110011 %
#515000
0"
#520000
b110011 '
b1111001011010001011110111110010 *
1"
#521000
b110100 %
#525000
0"
#530000
b1000101001011100110000110001010 *
b110100 '
1"
#531000
b110101 %
#535000
0"
#540000
b110101 '
b100000110001001011001101000001 *
1"
#541000
b110110 %
#545000
0"
#550000
b111111111111111111111111111111111111111111111111111111111111111111101100010010110011010011011000 *
b110110 '
1"
#551000
b110111 %
#555000
0"
#560000
b110111 '
b111100001000001111001101111000 *
1"
#561000
b111000 %
#565000
0"
#570000
b111111111111111111111111111111111111111111111111111111111111111111000100100010100001001010001001 *
b111000 '
1"
#571000
b111001 %
#575000
0"
#580000
b111001 '
b1110101110001010000110111101011 *
1"
#581000
b111010 %
#585000
0"
#590000
b1011011000000100110010110110110 *
b111010 '
1"
#591000
b111011 %
#595000
0"
#600000
b111011 '
b1100011010010111111100111000110 *
1"
#601000
b111100 %
#605000
0"
#610000
b1010111000101010001001110101110 *
b111100 '
1"
#611000
b111101 %
#615000
0"
#620000
b111101 '
b111111111111111111111111111111111111111111111111111111111111111111011110011101010000001010111100 *
1"
#621000
b111110 %
#625000
0"
#630000
b10101000011111101110100101010 *
b111110 '
1"
#631000
b111111 %
#635000
0"
#640000
b111111 '
b111111111111111111111111111111111111111111111111111111111111111110000101110101111001101000001011 *
1"
#641000
b1000000 %
#645000
0"
#650000
b111111111111111111111111111111111111111111111111111111111111111110111000100101111011111001110001 *
b1000000 '
1"
#651000
b1000001 %
#655000
0"
#660000
b1000001 '
b1000010111100100100000110000101 *
1"
#661000
b1000010 %
#665000
0"
#670000
b100111111100100101010101001111 *
b1000010 '
1"
#671000
b1000011 %
#675000
0"
#680000
b1000011 '
b111111111111111111111111111111111111111111111111111111111111111110011101110011000110000000111011 *
1"
#681000
b1000100 %
#685000
0"
#690000
b11101000001100011001100111010 *
b1000100 '
1"
#691000
b1000101 %
#695000
0"
#700000
b1000101 '
b111111111111111111111111111111111111111111111111111111111111111110111111001000110011001001111110 *
1"
#701000
b1000110 %
#705000
0"
#710000
b1010101010100100101100010101 *
b1000110 '
1"
#711000
b1000111 %
#715000
0"
#720000
b1000111 '
b1111000110110011001101111110001 *
1"
#721000
b1001000 %
#725000
0"
#730000
b1101100100111000100101111011001 *
b1001000 '
1"
#731000
b1001001 %
#735000
0"
#740000
b1001001 '
b110001001000110000011101100010 *
1"
#741000
b1001010 %
#745000
0"
#750000
b100110001101011111101101001100 *
b1001010 '
1"
#751000
b1001011 %
#755000
0"
#760000
b1001011 '
b1001111101000010101010110011111 *
1"
#761000
b1001100 %
#765000
0"
#770000
b1000111101110011010000110001111 *
b1001100 '
1"
#771000
b1001101 %
#775000
0"
#780000
b1001101 '
b1111100011011011010100111111000 *
1"
#781000
b1001110 %
#785000
0"
#790000
b111111111111111111111111111111111111111111111111111111111111111111011011110011010110000010110111 *
b1001110 '
1"
#791000
b1001111 %
#795000
0"
#800000
b1001111 '
b111111111111111111111111111111111111111111111111111111111111111111001111110001000101011010011111 *
1"
#801000
b1010000 %
#805000
0"
#810000
b111111111111111111111111111111111111111111111111111111111111111110101110011111011001010001011100 *
b1010000 '
1"
#811000
b1010001 %
#815000
0"
#820000
b1010001 '
b111111111111111111111111111111111111111111111111111111111111111110101101110010111100000001011011 *
1"
#821000
b1010010 %
#825000
0"
#830000
b1000100110111100011011110001001 *
b1010010 '
1"
#831000
b1010011 %
#835000
0"
#840000
b1010011 '
b111111111111111111111111111111111111111111111111111111111111111110100100101011100011001001001001 *
1"
#841000
b1010100 %
#845000
0"
#850000
b111111111111111111111111111111111111111111111111111111111111111111101000001000110011111011010000 *
b1010100 '
1"
#851000
b1010101 %
#855000
0"
#860000
b1010101 '
b111111111111111111111111111111111111111111111111111111111111111111101011111111101100000011010111 *
1"
#861000
b1010110 %
#865000
0"
#870000
b111111111111111111111111111111111111111111111111111111111111111110101000110001111111110001010001 *
b1010110 '
1"
#871000
b1010111 %
#875000
0"
#880000
b1010111 '
b1001011001000010010111110010110 *
1"
#881000
b1011000 %
#885000
0"
#890000
b110000111010111111100001100 *
b1011000 '
1"
#891000
b1011001 %
#895000
0"
#900000
b1011001 '
b111111111111111111111111111111111111111111111111111111111111111111100001001011001100111011000010 *
1"
#901000
b1011010 %
#905000
0"
#910000
b1100100010101111110110111001000 *
b1011010 '
1"
#911000
b1011011 %
#915000
0"
#920000
b1011011 '
b111111111111111111111111111111111111111111111111111111111111111110111011100000100101101001110111 *
1"
#921000
b1011100 %
#925000
0"
#930000
b11110111100101110110100111101 *
b1011100 '
1"
#931000
b1011101 %
#935000
0"
#940000
b1011101 '
b1001000011001101101100010010 *
1"
#941000
b1011110 %
#945000
0"
#950000
b111111111111111111111111111111111111111111111111111111111111111110111111000001010000000001111110 *
b1011110 '
1"
#951000
b1011111 %
#955000
0"
#960000
b1011111 '
b110110111001011000000101101101 *
1"
#961000
b1100000 %
#965000
0"
#970000
b11100110110011110011100111001 *
b1100000 '
1"
#971000
b1100001 %
#975000
0"
#980000
b1100001 '
b1111110100101000111100011111 *
1"
#981000
b1100010 %
#985000
0"
#990000
b111111111111111111111111111111111111111111111111111111111111111111101001111010111111011011010011 *
b1100010 '
1"
#991000
b1100011 %
#995000
0"
#1000000
b1100011 '
b1000010110110010010111110000101 *
1"
#1001000
b1100100 %
